demo_automation
…
Hægt er að koma í veg fyrir að plotið prentist með því að setja print_plot = FALSE. Þá skilar fallið bara gögnun

yfirverd(print_plot = FALSE, Landshluti)

## # A tibble: 2,022 x 4
## # Groups:   var [3]
##    timi       Landshluti       var                             val
##    <date>     <chr>            <fct>                         <dbl>
##  1 2013-01-01 Austurland       Selt yfir auglýstu söluverði NA    
##  2 2013-01-01 Höfuðborgarsvæði Selt yfir auglýstu söluverði NA    
##  3 2013-01-01 Norðausturland   Selt yfir auglýstu söluverði  3.67 
##  4 2013-01-01 Norðvesturland   Selt yfir auglýstu söluverði  3.33 
##  5 2013-01-01 Suðurland        Selt yfir auglýstu söluverði  0    
##  6 2013-01-01 Suðurnes         Selt yfir auglýstu söluverði  0.333
##  7 2013-01-01 Vestfirðir       Selt yfir auglýstu söluverði  1    
##  8 2013-01-01 Vesturland       Selt yfir auglýstu söluverði  1    
##  9 2013-02-01 Austurland       Selt yfir auglýstu söluverði  0.667
## 10 2013-02-01 Höfuðborgarsvæði Selt yfir auglýstu söluverði  8    
## # ... with 2,012 more rows
…
Vista skjöl

Seinustu mynd má vista með save_both fallinu úr theme_hms:

ggsave_both("yfir")

Að lokum er hægt að sjá gögnin sem notuð eru til útreikninganna með fallinu yfirverd_get_data

yfirverd_get_data()

## # A tibble: 66,019 x 22
##    Dim_Timi_Utgefid Dim_Timi_Thingl~ Dim_Fasteignir Faerslunumer Kaupverd
##    <chr>            <chr>                     <int> <chr>           <dbl>
##  1 2013-01-01       2013-02-22               208252 573576        6000000
##  2 2013-01-01       2013-01-21               303570 572905       14000000
##  3 2013-01-02       2013-01-10               115623 572708       20400000
##  4 2013-01-02       2013-01-07               147967 572607       18700000
##  5 2013-01-02       2013-01-11                76927 572749       40000000
##  6 2013-01-02       2013-01-07                87543 572615       21100000
##  7 2013-01-02       2013-01-10               271034 572705       54000000
##  8 2013-01-03       2013-01-10                79042 572707       31500000
##  9 2013-01-03       2013-01-03                15930 572532       20200000
## 10 2013-01-03       2013-01-07                29850 572604       39500000
## # ... with 66,009 more rows, and 17 more variables: Kaupverd_nuvirdi <dbl>,
## #   FjoldiFasteigna <int>, FjoldiMatseininga <int>, OnothaefurSamningur <int>,
## #   AuglystDags <chr>, AuglystSoluverd <dbl>, Landshluti <chr>,
## #   Landshlutaflokkun <chr>, HofudborgLandsbyggd <chr>, SerbyliFjolbyli <chr>,
## #   FjoldiHerbergja <int>, SeltYfirAuglystuSoluverdi <int>,
## #   SeltAAuglystuSoluverdi <int>, SeltUndirAuglystuSoluverdi <int>,
## #   LOAD_DATE <dttm>, RECORD_SOURCE <int>, ETL_ID <int>
